module gitlab.com/imlonghao/ipchecker/node

require (
	github.com/gin-contrib/sse v0.0.0-20190125020943-a7658810eb74 // indirect
	github.com/gin-gonic/gin v1.3.0
	github.com/golang/protobuf v1.2.0 // indirect
	github.com/json-iterator/go v1.1.5 // indirect
	github.com/mattn/go-isatty v0.0.4 // indirect
	github.com/modern-go/concurrent v0.0.0-20180306012644-bacd9c7ef1dd // indirect
	github.com/modern-go/reflect2 v1.0.1 // indirect
	github.com/sparrc/go-ping v0.0.0-20181106165434-ef3ab45e41b0
	github.com/stretchr/testify v1.3.0 // indirect
	github.com/ugorji/go/codec v0.0.0-20190204201341-e444a5086c43 // indirect
	gopkg.in/go-playground/assert.v1 v1.2.1 // indirect
	gopkg.in/go-playground/validator.v8 v8.18.2 // indirect
	gopkg.in/yaml.v2 v2.2.2 // indirect
)
